{
	"name": "Neo Ergo",
	"vendorProductId": 4294836299,
	"macros": ["", "", "", "", "", "", "", "", "", "", "", "", "", "", "", ""],
	"layers": [
		[
			"KC_ESC",
			"KC_1",
			"KC_2",
			"KC_3",
			"KC_4",
			"KC_5",
			"KC_6",
			"KC_NO",
			"KC_7",
			"KC_8",
			"KC_9",
			"KC_0",
			"KC_MINS",
			"KC_EQL",
			"KC_BSPC",
			"KC_DEL",
			"KC_TAB",
			"KC_Q",
			"KC_W",
			"KC_E",
			"KC_R",
			"KC_T",
			"KC_Y",
			"KC_U",
			"KC_I",
			"KC_O",
			"KC_P",
			"KC_LBRC",
			"KC_RBRC",
			"KC_GRV",
			"KC_PGUP",
			"KC_CAPS",
			"KC_A",
			"KC_S",
			"KC_D",
			"KC_F",
			"KC_G",
			"KC_H",
			"KC_J",
			"KC_K",
			"KC_L",
			"KC_SCLN",
			"KC_QUOT",
			"KC_BSLS",
			"KC_ENT",
			"KC_PGDN",
			"KC_LSFT",
			"KC_Z",
			"KC_X",
			"KC_C",
			"KC_V",
			"KC_B",
			"KC_B",
			"KC_N",
			"KC_M",
			"KC_COMM",
			"KC_DOT",
			"KC_SLSH",
			"KC_UP",
			"KC_RSFT",
			"MO(1)",
			"KC_LCTL",
			"KC_LGUI",
			"KC_LALT",
			"KC_NUBS",
			"KC_NO",
			"KC_SPC",
			"KC_SPC",
			"KC_NO",
			"KC_NO",
			"KC_RALT",
			"KC_NO",
			"KC_LEFT",
			"KC_DOWN",
			"KC_RGHT"
		],
		[
			"KC_ESC",
			"KC_F1",
			"KC_F2",
			"KC_F3",
			"KC_F4",
			"KC_F5",
			"KC_F6",
			"KC_NO",
			"KC_F7",
			"KC_F8",
			"KC_F9",
			"KC_F10",
			"KC_F11",
			"KC_F12",
			"KC_TRNS",
			"KC_PSCR",
			"CUSTOM(5)",
			"CUSTOM(0)",
			"CUSTOM(1)",
			"CUSTOM(2)",
			"CUSTOM(3)",
			"KC_TRNS",
			"KC_TRNS",
			"KC_TRNS",
			"KC_TRNS",
			"KC_TRNS",
			"KC_TRNS",
			"KC_TRNS",
			"KC_TRNS",
			"KC_TRNS",
			"KC_VOLU",
			"KC_MPLY",
			"KC_TRNS",
			"KC_TRNS",
			"KC_TRNS",
			"KC_TRNS",
			"KC_TRNS",
			"KC_TRNS",
			"KC_TRNS",
			"KC_TRNS",
			"KC_TRNS",
			"KC_TRNS",
			"KC_TRNS",
			"KC_TRNS",
			"KC_TRNS",
			"KC_VOLD",
			"KC_TRNS",
			"RGB_TOG",
			"RGB_MOD",
			"RGB_RMOD",
			"RGB_HUI",
			"RGB_HUD",
			"RGB_HUD",
			"RGB_SPI",
			"RGB_SPD",
			"RGB_VAI",
			"RGB_VAD",
			"KC_TRNS",
			"KC_TRNS",
			"KC_TRNS",
			"KC_TRNS",
			"KC_TRNS",
			"TO(2)",
			"KC_TRNS",
			"KC_TRNS",
			"KC_NO",
			"KC_TRNS",
			"KC_TRNS",
			"KC_NO",
			"KC_NO",
			"KC_TRNS",
			"KC_NO",
			"KC_TRNS",
			"KC_TRNS",
			"KC_TRNS"
		],
		[
			"KC_ESC",
			"KC_1",
			"KC_2",
			"KC_3",
			"KC_4",
			"KC_5",
			"KC_6",
			"KC_NO",
			"KC_7",
			"KC_8",
			"KC_9",
			"KC_0",
			"KC_MINS",
			"KC_EQL",
			"KC_BSPC",
			"KC_DEL",
			"KC_TAB",
			"KC_Q",
			"KC_W",
			"KC_E",
			"KC_R",
			"KC_T",
			"KC_Y",
			"KC_U",
			"KC_I",
			"KC_O",
			"KC_P",
			"KC_LBRC",
			"KC_RBRC",
			"KC_GRV",
			"KC_PGUP",
			"KC_CAPS",
			"KC_A",
			"KC_S",
			"KC_D",
			"KC_F",
			"KC_G",
			"KC_H",
			"KC_J",
			"KC_K",
			"KC_L",
			"KC_SCLN",
			"KC_QUOT",
			"KC_BSLS",
			"KC_ENT",
			"KC_PGDN",
			"KC_LSFT",
			"KC_Z",
			"KC_X",
			"KC_C",
			"KC_V",
			"KC_B",
			"KC_B",
			"KC_N",
			"KC_M",
			"KC_COMM",
			"KC_DOT",
			"KC_SLSH",
			"KC_UP",
			"KC_RSFT",
			"MO(3)",
			"KC_LCTL",
			"KC_LALT",
			"KC_LGUI",
			"KC_NUBS",
			"KC_NO",
			"KC_SPC",
			"KC_SPC",
			"KC_NO",
			"KC_NO",
			"KC_RGUI",
			"KC_NO",
			"KC_LEFT",
			"KC_DOWN",
			"KC_RGHT"
		],
		[
			"KC_ESC",
			"KC_F1",
			"KC_F2",
			"KC_F3",
			"KC_F4",
			"KC_F5",
			"KC_F6",
			"KC_NO",
			"KC_F7",
			"KC_F8",
			"KC_F9",
			"KC_F10",
			"KC_F11",
			"KC_F12",
			"KC_TRNS",
			"KC_PSCR",
			"CUSTOM(5)",
			"CUSTOM(0)",
			"CUSTOM(1)",
			"CUSTOM(2)",
			"CUSTOM(3)",
			"KC_TRNS",
			"KC_TRNS",
			"KC_TRNS",
			"KC_TRNS",
			"KC_TRNS",
			"KC_TRNS",
			"KC_TRNS",
			"KC_TRNS",
			"KC_TRNS",
			"KC_VOLU",
			"KC_MPLY",
			"KC_TRNS",
			"KC_TRNS",
			"KC_TRNS",
			"KC_TRNS",
			"KC_TRNS",
			"KC_TRNS",
			"KC_TRNS",
			"KC_TRNS",
			"KC_TRNS",
			"KC_TRNS",
			"KC_TRNS",
			"KC_TRNS",
			"KC_TRNS",
			"KC_VOLD",
			"KC_TRNS",
			"RGB_TOG",
			"RGB_MOD",
			"RGB_RMOD",
			"RGB_HUI",
			"RGB_HUD",
			"RGB_HUD",
			"RGB_SPI",
			"RGB_SPD",
			"RGB_VAI",
			"RGB_VAD",
			"KC_TRNS",
			"KC_TRNS",
			"KC_TRNS",
			"KC_TRNS",
			"KC_TRNS",
			"TO(0)",
			"KC_TRNS",
			"KC_TRNS",
			"KC_NO",
			"KC_TRNS",
			"KC_TRNS",
			"KC_NO",
			"KC_NO",
			"KC_TRNS",
			"KC_NO",
			"KC_TRNS",
			"KC_TRNS",
			"KC_TRNS"
		]
	],
	"encoders": []
}
